%YAML 1.1
%TAG !u! tag:unity3d.com,2011:
--- !u!114 &11400000
MonoBehaviour:
  m_ObjectHideFlags: 0
  m_PrefabParentObject: {fileID: 0}
  m_PrefabInternal: {fileID: 0}
  m_GameObject: {fileID: 0}
  m_Enabled: 1
  m_EditorHideFlags: 0
  m_Script: {fileID: -571485480, guid: 3c2bf38b81912e545bda7d1ba62abf8f, type: 3}
  m_Name: BuildConfigSO
  m_EditorClassIdentifier: 
  BuildType: 0
  BuildNumber: 0
  ProductName: 
  buildConfig:
    app_output_name: 
    buildConfig:
      bundleIdentifier: com.asink.unspecifiedBuild
      companyName: quilt
      defaultIconGUID: 
      defaultInterfaceOrientation: 4
      defaultIsFullScreen: 0
      defaultScreenHeight: 0
      defaultScreenWidth: 0
      displayResolutionDialog: 0
      graphicsAPIs: 
      iconGroupGUIDs: []
      iosTargetDevice: 0
      iPhoneArchitecture: 0
      productName: 
      RenderingPathCopy: 0
      scriptingBackend: 0
      scriptingDefineSymbols: []
      splashScreenGUIDAkaResolutionDialogBanner: 
      stripUnusedMeshComponents: 0
      supportedAspectRatios: 
      use32BitDisplayBuffer: 0
      usePlayerLog: 0
      virtualRealitySupported: 0
      resizableWindow: 0
    buildOptions: 0
    editorUserBuildSettings:
      allowDebugging: 0
      currentBuildTarget: 0
      currentBuildTargetGroup: 0
      development: 0
      explicitNullChecks: 0
      subtarget: 0
      symlinkLibraries: 0
      vrEnabled: 0
      vrDeviceType: 0
    InterfaceMapping:
      namedInterfaceBindings: []
    packagesToAdd: []
  packageFileName: 
