%YAML 1.1
%TAG !u! tag:unity3d.com,2011:
--- !u!114 &11400000
MonoBehaviour:
  m_ObjectHideFlags: 0
  m_PrefabParentObject: {fileID: 0}
  m_PrefabInternal: {fileID: 0}
  m_GameObject: {fileID: 0}
  m_Enabled: 1
  m_EditorHideFlags: 0
  m_Script: {fileID: -571485480, guid: 3c2bf38b81912e545bda7d1ba62abf8f, type: 3}
  m_Name: BuildConfigSO
  m_EditorClassIdentifier: 
  BuildType: 0
  BuildNumber: 1
  ProductName: Interfaces
