{  
   "interfaceMap":{  
   },
   "interfaceToMultipleMaps":{  
      "IAnalytics":[  
         "NullAnalytics",
         "NullAnalytics",
         "NullAnalytics"
      ]
   },
   "namedStringTypes":{  
      "ANALYTICS_INITIALIZATION":"{\"PRIMARY\":[\"\"],\"SECONDARY\":[\"\"],\"TERTIARY\":[\"\"]}"
   },
   "namedIntTypes":{  

   }
}