%YAML 1.1
%TAG !u! tag:unity3d.com,2011:
--- !u!114 &11400000
MonoBehaviour:
  m_ObjectHideFlags: 0
  m_PrefabParentObject: {fileID: 0}
  m_PrefabInternal: {fileID: 0}
  m_GameObject: {fileID: 0}
  m_Enabled: 1
  m_EditorHideFlags: 0
  m_Script: {fileID: 11500000, guid: e0b949e5b54196640b0f9ac003657a06, type: 3}
  m_Name: Interfaces
  m_EditorClassIdentifier: 
  nameOfDll: Interfaces_asink
  listOfDependencies:
  - {fileID: 11400000, guid: c4b5429ee10008746b391615f89339df, type: 2}
  - {fileID: 11400000, guid: 00ceaa2e2e6051a4e8ea8be6d8a77493, type: 2}
  defines: []
  dllObjects: []
  EditorBuild: 0
  BaseDirectory: {fileID: 102900000, guid: 189a71385c5a2394785b4052fe7e815c, type: 3}
  buildType: 0
  pluginEditorBuild:
    DirectoriesToSearch: []
    blackListDirectories: []
    dllsToCopy: []
    enabled: 0
    flags: 3
  pluginBuild:
    DirectoriesToSearch: []
    blackListDirectories: []
    dllsToCopy: []
    enabled: 0
    flags: 2
  scriptsBuild:
    DirectoriesToSearch:
    - {fileID: 102900000, guid: 2cc43151e4a096b48b25b7b89ba49af9, type: 3}
    blackListDirectories:
    - {fileID: 102900000, guid: 2cf7d907423abc145ae66e825ba232b2, type: 3}
    - {fileID: 102900000, guid: 302f487f99027a547a44138180525d7b, type: 3}
    dllsToCopy: []
    enabled: 1
    flags: 0
  editorBuild:
    DirectoriesToSearch:
    - {fileID: 102900000, guid: 2cf7d907423abc145ae66e825ba232b2, type: 3}
    - {fileID: 102900000, guid: 302f487f99027a547a44138180525d7b, type: 3}
    blackListDirectories: []
    dllsToCopy: []
    enabled: 1
    flags: 1
